<?xml version="1.0" encoding="UTF-8" standalone="no"?>
<!-- Created with Inkscape (http://www.inkscape.org/) -->
<svg
   xmlns:dc="http://purl.org/dc/elements/1.1/"
   xmlns:cc="http://creativecommons.org/ns#"
   xmlns:rdf="http://www.w3.org/1999/02/22-rdf-syntax-ns#"
   xmlns:svg="http://www.w3.org/2000/svg"
   xmlns="http://www.w3.org/2000/svg"
   xmlns:sodipodi="http://sodipodi.sourceforge.net/DTD/sodipodi-0.dtd"
   xmlns:inkscape="http://www.inkscape.org/namespaces/inkscape"
   width="268.67322"
   height="686.11847"
   id="svg2417"
   sodipodi:version="0.32"
   inkscape:version="0.46"
   version="1.0"
   sodipodi:docname="alef.fina.svg"
   inkscape:output_extension="org.inkscape.output.svg.inkscape">
  <defs
     id="defs2419">
    <inkscape:perspective
       sodipodi:type="inkscape:persp3d"
       inkscape:vp_x="0 : 526.18109 : 1"
       inkscape:vp_y="0 : 1000 : 0"
       inkscape:vp_z="744.09448 : 526.18109 : 1"
       inkscape:persp3d-origin="372.04724 : 350.78739 : 1"
       id="perspective2425" />
  </defs>
  <sodipodi:namedview
     id="base"
     pagecolor="#ffffff"
     bordercolor="#666666"
     borderopacity="1.0"
     gridtolerance="10000"
     guidetolerance="10"
     objecttolerance="10"
     inkscape:pageopacity="0.0"
     inkscape:pageshadow="2"
     inkscape:zoom="0.35"
     inkscape:cx="375"
     inkscape:cy="520"
     inkscape:document-units="px"
     inkscape:current-layer="layer1"
     showgrid="false"
     inkscape:window-width="645"
     inkscape:window-height="734"
     inkscape:window-x="50"
     inkscape:window-y="28" />
  <metadata
     id="metadata2422">
    <rdf:RDF>
      <cc:Work
         rdf:about="">
        <dc:format>image/svg+xml</dc:format>
        <dc:type
           rdf:resource="http://purl.org/dc/dcmitype/StillImage" />
      </cc:Work>
    </rdf:RDF>
  </metadata>
  <g
     inkscape:label="Layer 1"
     inkscape:groupmode="layer"
     id="layer1"
     transform="translate(-579.94911,262.12562)">
    <path
       style="fill:#000000"
       d="M 616.36617,414.44853 C 613.80152,408.08278 607.92842,334.24943 603.31492,250.37442 C 598.70137,166.49942 591.02032,42.749426 586.24597,-24.625624 C 577.62992,-146.21452 577.64007,-147.25577 587.61357,-164.62562 C 630.53112,-239.37072 644.81752,-262.12562 648.82772,-262.12562 C 651.36902,-262.12562 653.91877,-238.50062 654.49382,-209.62562 C 655.42317,-162.96347 663.47992,1.1119756 668.48852,75.374426 C 673.57252,150.75477 676.34267,197.27157 678.40387,241.87532 C 679.64927,268.82582 681.81437,292.73067 683.21512,294.99722 C 686.06777,299.61282 713.59452,295.12637 758.44827,282.73527 C 827.50582,263.65767 846.41942,259.17892 848.62232,261.38177 C 835.50202,295.87882 810.35162,346.02123 793.44827,386.75683 C 753.87602,397.68533 681.10272,414.69268 660.94827,417.72248 C 648.57327,419.58283 634.52897,422.21143 629.73872,423.56378 C 623.94112,425.20053 619.47022,422.15298 616.36617,414.44853 z"
       id="path2482"
       sodipodi:nodetypes="csssssssssccssc" />
  </g>
</svg>
