<?xml version="1.0" encoding="UTF-8" standalone="no"?>
<!-- Created with Inkscape (http://www.inkscape.org/) -->
<svg
   xmlns:dc="http://purl.org/dc/elements/1.1/"
   xmlns:cc="http://creativecommons.org/ns#"
   xmlns:rdf="http://www.w3.org/1999/02/22-rdf-syntax-ns#"
   xmlns:svg="http://www.w3.org/2000/svg"
   xmlns="http://www.w3.org/2000/svg"
   xmlns:sodipodi="http://sodipodi.sourceforge.net/DTD/sodipodi-0.dtd"
   xmlns:inkscape="http://www.inkscape.org/namespaces/inkscape"
   width="556.73438"
   height="379.23376"
   id="svg2386"
   sodipodi:version="0.32"
   inkscape:version="0.46"
   version="1.0"
   sodipodi:docname="baa.init.alt2.svg"
   inkscape:output_extension="org.inkscape.output.svg.inkscape">
  <defs
     id="defs2388">
    <inkscape:perspective
       sodipodi:type="inkscape:persp3d"
       inkscape:vp_x="0 : 526.18109 : 1"
       inkscape:vp_y="0 : 1000 : 0"
       inkscape:vp_z="744.09448 : 526.18109 : 1"
       inkscape:persp3d-origin="372.04724 : 350.78739 : 1"
       id="perspective2394" />
  </defs>
  <sodipodi:namedview
     id="base"
     pagecolor="#ffffff"
     bordercolor="#666666"
     borderopacity="1.0"
     gridtolerance="10000"
     guidetolerance="10"
     objecttolerance="10"
     inkscape:pageopacity="0.0"
     inkscape:pageshadow="2"
     inkscape:zoom="0.35"
     inkscape:cx="375"
     inkscape:cy="520"
     inkscape:document-units="px"
     inkscape:current-layer="layer1"
     showgrid="false"
     inkscape:window-width="645"
     inkscape:window-height="734"
     inkscape:window-x="50"
     inkscape:window-y="28" />
  <metadata
     id="metadata2391">
    <rdf:RDF>
      <cc:Work
         rdf:about="">
        <dc:format>image/svg+xml</dc:format>
        <dc:type
           rdf:resource="http://purl.org/dc/dcmitype/StillImage" />
      </cc:Work>
    </rdf:RDF>
  </metadata>
  <g
     inkscape:label="Layer 1"
     inkscape:groupmode="layer"
     id="layer1"
     transform="translate(-96.6328,-342.7453)">
    <path
       style="fill:#000000"
       d="M 107.17356,720.36674 C 91.813757,717.10984 93.031907,711.39129 112.19986,696.77119 C 134.66651,679.63504 183.47191,658.20094 284.31041,621.18464 C 393.46596,581.11534 407.88066,571.38424 433.57226,520.42114 C 444.45346,498.83674 458.85986,472.17679 465.58636,461.17679 C 479.35036,438.66849 510.74666,403.67679 517.17826,403.67679 C 519.50206,403.67679 550.45836,389.12574 585.96996,371.34114 C 621.48166,353.55654 651.64486,340.79869 652.99936,342.99034 C 656.24706,348.24524 637.23376,411.42154 625.70676,433.67679 C 613.53956,457.16799 592.38276,472.83514 531.71636,503.27899 C 461.62616,538.45184 444.49106,555.15859 415.92356,616.17679 C 399.12566,652.05594 386.48566,671.60934 371.16696,685.41264 C 334.37886,718.56139 325.15526,720.72299 215.92356,721.79519 C 162.29856,722.32154 113.36106,721.67874 107.17356,720.36674 z"
       id="path2655" />
  </g>
</svg>
