<?xml version="1.0" encoding="UTF-8" standalone="no"?>
<!-- Created with Inkscape (http://www.inkscape.org/) -->
<svg
   xmlns:dc="http://purl.org/dc/elements/1.1/"
   xmlns:cc="http://creativecommons.org/ns#"
   xmlns:rdf="http://www.w3.org/1999/02/22-rdf-syntax-ns#"
   xmlns:svg="http://www.w3.org/2000/svg"
   xmlns="http://www.w3.org/2000/svg"
   xmlns:sodipodi="http://sodipodi.sourceforge.net/DTD/sodipodi-0.dtd"
   xmlns:inkscape="http://www.inkscape.org/namespaces/inkscape"
   width="679.58081"
   height="681.4657"
   id="svg2384"
   sodipodi:version="0.32"
   inkscape:version="0.46"
   version="1.0"
   sodipodi:docname="lam-alef.isol.svg"
   inkscape:output_extension="org.inkscape.output.svg.inkscape">
  <defs
     id="defs2386">
    <inkscape:perspective
       sodipodi:type="inkscape:persp3d"
       inkscape:vp_x="0 : 526.18109 : 1"
       inkscape:vp_y="0 : 1000 : 0"
       inkscape:vp_z="744.09448 : 526.18109 : 1"
       inkscape:persp3d-origin="372.04724 : 350.78739 : 1"
       id="perspective2392" />
  </defs>
  <sodipodi:namedview
     id="base"
     pagecolor="#ffffff"
     bordercolor="#666666"
     borderopacity="1.0"
     gridtolerance="10000"
     guidetolerance="10"
     objecttolerance="10"
     inkscape:pageopacity="0.0"
     inkscape:pageshadow="2"
     inkscape:zoom="0.35"
     inkscape:cx="375"
     inkscape:cy="520"
     inkscape:document-units="px"
     inkscape:current-layer="layer1"
     showgrid="false"
     inkscape:window-width="645"
     inkscape:window-height="734"
     inkscape:window-x="50"
     inkscape:window-y="28" />
  <metadata
     id="metadata2389">
    <rdf:RDF>
      <cc:Work
         rdf:about="">
        <dc:format>image/svg+xml</dc:format>
        <dc:type
           rdf:resource="http://purl.org/dc/dcmitype/StillImage" />
      </cc:Work>
    </rdf:RDF>
  </metadata>
  <g
     inkscape:label="Layer 1"
     inkscape:groupmode="layer"
     id="layer1"
     transform="translate(-225.92389,-151.62933)">
    <path
       style="fill:#000000"
       d="M 238.65782,831.20886 C 228.05912,829.43386 224.98827,826.43086 226.15782,818.98506 C 227.42507,810.91721 247.34282,802.43726 335.20827,772.55706 C 466.71347,727.83641 497.48497,715.82411 567.70827,681.79591 C 669.79572,632.32726 786.12452,550.48616 822.91777,502.24771 L 836.81592,484.02631 L 825.09602,387.20321 L 813.37617,290.38016 L 847.25327,223.72906 C 884.93077,149.60101 890.20122,141.76321 890.22307,159.82796 C 890.23122,166.56546 893.72837,206.95296 897.99452,249.57796 C 902.26067,292.20296 905.63842,350.37246 905.50062,378.84356 L 905.25002,430.60911 L 875.16492,501.38176 C 841.82417,579.81301 821.22627,613.79551 779.97017,658.43451 C 706.27257,738.17496 589.98322,797.24061 457.70827,822.11766 C 414.21232,830.29801 269.16402,836.31791 238.65782,831.20886 z"
       id="path3027" />
    <path
       style="fill:#000000"
       d="M 573.09707,653.74376 C 569.37872,642.03301 555.50997,563.80281 547.54287,509.59921 C 543.30037,480.73591 536.68942,442.06161 532.85177,423.65626 C 529.01417,405.25096 524.35307,374.75396 522.49377,355.88516 C 519.12402,321.68741 519.19762,321.41216 545.63937,269.32816 C 560.22877,240.59056 571.87447,215.83846 571.51872,214.32346 C 571.16297,212.80846 574.90317,209.05141 579.83027,205.97436 C 588.12162,200.79636 589.03282,203.79356 592.06797,246.22886 C 593.87157,271.44586 600.98267,324.70296 607.87037,364.57796 C 614.75807,404.45296 624.10967,464.30006 628.65172,497.57156 L 636.90997,558.06511 L 612.30912,607.45371 C 588.65937,654.93291 577.61452,667.97136 573.09707,653.74376 z"
       id="path2949" />
  </g>
</svg>
