<?xml version="1.0" encoding="UTF-8" standalone="no"?>
<!-- Created with Inkscape (http://www.inkscape.org/) -->
<svg
   xmlns:dc="http://purl.org/dc/elements/1.1/"
   xmlns:cc="http://creativecommons.org/ns#"
   xmlns:rdf="http://www.w3.org/1999/02/22-rdf-syntax-ns#"
   xmlns:svg="http://www.w3.org/2000/svg"
   xmlns="http://www.w3.org/2000/svg"
   xmlns:sodipodi="http://sodipodi.sourceforge.net/DTD/sodipodi-0.dtd"
   xmlns:inkscape="http://www.inkscape.org/namespaces/inkscape"
   width="663.60376"
   height="754.22504"
   id="svg3420"
   sodipodi:version="0.32"
   inkscape:version="0.46"
   version="1.0"
   sodipodi:docname="taa.isol.svg"
   inkscape:output_extension="org.inkscape.output.svg.inkscape">
  <defs
     id="defs3422">
    <inkscape:perspective
       sodipodi:type="inkscape:persp3d"
       inkscape:vp_x="0 : 526.18109 : 1"
       inkscape:vp_y="0 : 1000 : 0"
       inkscape:vp_z="744.09448 : 526.18109 : 1"
       inkscape:persp3d-origin="372.04724 : 350.78739 : 1"
       id="perspective3428" />
  </defs>
  <sodipodi:namedview
     id="base"
     pagecolor="#ffffff"
     bordercolor="#666666"
     borderopacity="1.0"
     gridtolerance="10000"
     guidetolerance="10"
     objecttolerance="10"
     inkscape:pageopacity="0.0"
     inkscape:pageshadow="2"
     inkscape:zoom="0.35"
     inkscape:cx="375"
     inkscape:cy="520"
     inkscape:document-units="px"
     inkscape:current-layer="layer1"
     showgrid="false"
     inkscape:window-width="645"
     inkscape:window-height="734"
     inkscape:window-x="50"
     inkscape:window-y="28" />
  <metadata
     id="metadata3425">
    <rdf:RDF>
      <cc:Work
         rdf:about="">
        <dc:format>image/svg+xml</dc:format>
        <dc:type
           rdf:resource="http://purl.org/dc/dcmitype/StillImage" />
      </cc:Work>
    </rdf:RDF>
  </metadata>
  <g
     inkscape:label="Layer 1"
     inkscape:groupmode="layer"
     id="layer1"
     transform="translate(-43.198117,-155.24967)">
    <path
       id="path2507"
       style="fill:#000000"
       d="M 174.35886,902.84723 C 143.51306,891.32603 56.83661,844.66898 47.86751,834.75823 C 36.46586,822.15953 38.09751,821.84083 145.98481,815.59558 C 247.02256,809.74683 310.20996,800.37423 328.23766,788.56203 C 340.85806,780.29288 392.20561,718.69478 412.53611,687.43508 L 425.21501,667.94033 L 420.69381,585.44033 C 415.60001,492.49163 407.87096,368.98468 403.17146,305.44033 L 400.02826,262.94033 L 426.75656,219.74513 C 441.45711,195.98778 457.20776,171.23778 461.75806,164.74513 C 478.70176,140.56868 479.47616,146.75213 488.45816,377.94033 C 488.99236,391.69033 491.08071,433.31533 493.09891,470.44033 L 496.76841,537.94033 L 466.16501,597.31208 C 449.33316,629.96658 436.62561,657.74778 437.92596,659.04818 C 439.22636,660.34853 459.27906,643.52623 482.48756,621.66523 C 549.06483,558.95348 602.45323,533.71848 644.56283,545.05743 C 702.86243,560.75588 721.92633,613.47433 694.42373,682.94033 C 670.61843,743.06748 630.95483,792.51758 582.65103,822.29148 C 540.68213,848.16063 425.24216,885.49608 335.62801,902.18338 C 285.00501,911.61003 198.76996,911.96498 174.35886,902.84723 z M 446.90791,767.75043 C 499.39613,756.71533 600.26353,722.14443 622.23483,707.65958 C 643.03593,693.94623 645.36133,685.95088 632.05183,673.90598 C 605.34543,649.73703 559.89963,645.60978 523.55063,664.05223 C 480.70501,685.79098 395.98481,755.24048 395.98481,768.62453 C 395.98481,777.28213 402.06711,777.17773 446.90791,767.75043 z" />
  </g>
</svg>
