<?xml version="1.0" encoding="UTF-8" standalone="no"?>
<!-- Created with Inkscape (http://www.inkscape.org/) -->
<svg
   xmlns:dc="http://purl.org/dc/elements/1.1/"
   xmlns:cc="http://creativecommons.org/ns#"
   xmlns:rdf="http://www.w3.org/1999/02/22-rdf-syntax-ns#"
   xmlns:svg="http://www.w3.org/2000/svg"
   xmlns="http://www.w3.org/2000/svg"
   xmlns:sodipodi="http://sodipodi.sourceforge.net/DTD/sodipodi-0.dtd"
   xmlns:inkscape="http://www.inkscape.org/namespaces/inkscape"
   width="656.83643"
   height="700.05829"
   id="svg2781"
   sodipodi:version="0.32"
   inkscape:version="0.46"
   version="1.0"
   sodipodi:docname="waaw.fina.svg"
   inkscape:output_extension="org.inkscape.output.svg.inkscape">
  <defs
     id="defs2783">
    <inkscape:perspective
       sodipodi:type="inkscape:persp3d"
       inkscape:vp_x="0 : 526.18109 : 1"
       inkscape:vp_y="0 : 1000 : 0"
       inkscape:vp_z="744.09448 : 526.18109 : 1"
       inkscape:persp3d-origin="372.04724 : 350.78739 : 1"
       id="perspective2789" />
  </defs>
  <sodipodi:namedview
     id="base"
     pagecolor="#ffffff"
     bordercolor="#666666"
     borderopacity="1.0"
     gridtolerance="10000"
     guidetolerance="10"
     objecttolerance="10"
     inkscape:pageopacity="0.0"
     inkscape:pageshadow="2"
     inkscape:zoom="0.35"
     inkscape:cx="375"
     inkscape:cy="520"
     inkscape:document-units="px"
     inkscape:current-layer="layer1"
     showgrid="false"
     inkscape:window-width="645"
     inkscape:window-height="734"
     inkscape:window-x="0"
     inkscape:window-y="28" />
  <metadata
     id="metadata2786">
    <rdf:RDF>
      <cc:Work
         rdf:about="">
        <dc:format>image/svg+xml</dc:format>
        <dc:type
           rdf:resource="http://purl.org/dc/dcmitype/StillImage" />
      </cc:Work>
    </rdf:RDF>
  </metadata>
  <g
     inkscape:label="Layer 1"
     inkscape:groupmode="layer"
     id="layer1"
     transform="translate(-46.581795,-182.33303)">
    <path
       style="fill:#000000"
       d="M 77.429352,881.08644 C 49.293802,878.95529 39.278202,870.00539 52.072052,858.42714 C 65.025002,846.70489 122.11985,819.42924 200.24375,787.64184 C 289.06135,751.50329 371.73785,708.41879 407.54175,679.61434 C 434.2374,658.13749 435.78105,655.67764 435.78105,634.61434 L 435.78105,612.33304 L 410.78105,611.63839 C 397.03105,611.25629 380.6163,610.69379 374.3038,610.38839 C 367.9913,610.08294 357.0089,604.01539 349.89845,596.90499 C 338.34335,585.34984 337.25845,581.18594 339.6828,557.69609 C 342.99115,525.64119 370.94475,465.09734 395.83255,436.08304 C 420.89955,406.85979 436.47345,407.13294 467.10625,437.33304 C 479.73345,449.78189 494.67535,459.83304 500.55435,459.83304 C 529.0149,459.83304 604.3806,432.34274 630.056,412.59614 C 638.9222,405.77729 638.31625,403.45109 616.306,359.80859 C 603.64225,334.69869 593.28105,311.28709 593.28105,307.78279 C 593.28105,298.39114 647.43875,182.33303 651.8213,182.33303 C 656.22065,182.33303 678.34665,226.10473 693.02725,263.85039 C 713.11085,315.48794 705.3261,359.40829 658.733,457.33304 C 626.69815,524.66079 616.2106,535.80229 558.93735,563.35174 C 532.4514,576.09199 510.12985,586.97589 509.3339,587.53824 C 508.538,588.10054 498.204,611.90944 486.36945,640.44684 C 442.63125,745.91579 406.95475,801.52174 365.33905,829.08684 C 313.3604,863.51604 175.1115,888.48524 77.429352,881.08644 z"
       id="path2655" />
  </g>
</svg>
